%YAML 1.1
%TAG !u! tag:unity3d.com,2011:
--- !u!162 &1
EditorUserSettings:
  m_ObjectHideFlags: 0
  serializedVersion: 4
  m_ConfigSettings:
    RecentlyUsedSceneGuid-0:
      value: 53030d0006510f0e5d5e0f7316200b444116497c7c7f7f687d791b32e4b66060
      flags: 0
    RecentlyUsedSceneGuid-1:
      value: 57050d5004060d590f56087046700f4445164c7e7a7824312e7c4e6bb0e1376d
      flags: 0
    RecentlyUsedSceneGuid-2:
      value: 0608045752515c5d54580e7b167306444e4e1a7e2e7b71357c2d4b36e0b9656c
      flags: 0
    RecentlyUsedSceneGuid-3:
      value: 0050515355030a59080f5a7640730a444e4f1c2f797b70337e7a4e65e4b56c60
      flags: 0
    vcSharedLogLevel:
      value: 0d5e400f0650
      flags: 0
  m_VCAutomaticAdd: 1
  m_VCDebugCom: 0
  m_VCDebugCmd: 0
  m_VCDebugOut: 0
  m_SemanticMergeMode: 2
  m_DesiredImportWorkerCount: 3
  m_StandbyImportWorkerCount: 2
  m_IdleImportWorkerShutdownDelay: 60000
  m_VCShowFailedCheckout: 1
  m_VCOverwriteFailedCheckoutAssets: 1
  m_VCProjectOverlayIcons: 1
  m_VCHierarchyOverlayIcons: 1
  m_VCOtherOverlayIcons: 1
  m_VCAllowAsyncUpdate: 1
  m_VCScanLocalPackagesOnConnect: 1
  m_ArtifactGarbageCollection: 1
  m_CompressAssetsOnImport: 1
